[gd_scene load_steps=3 format=3 uid="uid://chtyak23ny1mi"]

[sub_resource type="BoxMesh" id="BoxMesh_pip02"]

[sub_resource type="BoxShape3D" id="BoxShape3D_pi6ec"]

[node name="StaticBody3D" type="StaticBody3D"]

[node name="MeshInstance3D" type="MeshInstance3D" parent="."]
mesh = SubResource("BoxMesh_pip02")

[node name="CollisionShape3D" type="CollisionShape3D" parent="."]
shape = SubResource("BoxShape3D_pi6ec")
